{
  "properties" : {
    "frame-size" : {
      "width" : 768,
      "height" : 768
    },
    "frame-center" : {
      "y" : 384,
      "x" : 640
    }
  },
  "info" : {
    "author" : "xcode",
    "version" : 1
  }
}